{
    "zip_code": "01000",
    "locality": "CIUDAD DE MEXICO",
    "federal_entity": {
        "key": 9,
        "name": "CIUDAD DE MEXICO",
        "code": null
    },
    "settlements": [
        {
            "key": 1,
            "name": "SAN ANGEL",
            "zone_type": "URBANO",
            "settlement_type": {
                "name": "Colonia"
            }
        }
    ],
    "municipality": {
        "key": 10,
        "name": "ALVARO OBREGON"
    }
}
